@startuml sp00tn1k-client

Client *-- Renderer
Client *-- Connector
Client *-- UI

Client -- Settings
Client -- Resizer

Client : -ui
Client : -renderer
Client : -robot
Client : +animate()



@enduml
